<svg width="121" height="34" viewBox="0 0 121 34" fill="none" xmlns="http://www.w3.org/2000/svg">
<g clip-path="url(#clip0_109_4684)">
<path d="M20.1289 0.565918V33.6249H20.7023V0.565918" fill="#171321"/>
<path d="M0.670898 9.55322V11.42L8.4223 17.0468L0.670898 22.6604V24.5538L10.9957 17.0468L0.670898 9.55322Z" fill="#171321"/>
<path d="M0.501953 5.99731V7.8685L13.3913 17.0466L0.501953 26.3003V28.1937L15.9692 17.0466L0.501953 5.99731Z" fill="#171321"/>
<path d="M0.670898 18.9134V20.7846L5.83998 17.0467L0.670898 13.2732V15.1755L3.25766 17.0467L0.670898 18.9134Z" fill="#171321"/>
<path d="M31.1702 0.455078H26.7256V13.4689H31.1702C32.3391 13.4689 33.3392 13.4689 34.3348 12.86C35.2637 12.3 35.757 10.9932 35.757 9.85987C35.7756 8.98276 35.4575 8.13184 34.8681 7.482C34.5172 7.09591 34.0642 6.81701 33.5614 6.67753C34.1614 6.44641 35.4104 5.97973 35.4104 3.89077C35.4329 3.06519 35.195 2.25347 34.7303 1.57068C33.9303 0.455082 32.468 0.455078 31.1746 0.455078M29.499 5.70861V2.56183H30.6324C31.1969 2.56183 32.4991 2.56182 32.4991 4.08188C32.4991 5.70861 31.1924 5.70861 30.4102 5.70861H29.499ZM29.499 11.2244V7.80647H30.8813C31.5169 7.80647 32.8458 7.80647 32.8458 9.50876C32.8458 10.7933 32.1302 11.2199 30.9035 11.2199L29.499 11.2244Z" fill="#171321"/>
<path d="M40.4771 3.63725C39.8209 3.61742 39.1714 3.775 38.5973 4.09337C38.0231 4.41173 37.5455 4.8791 37.2147 5.44621C36.7194 6.4819 36.4714 7.61846 36.4903 8.76634C36.4903 11.322 37.5436 13.6554 40.4904 13.6554C43.6016 13.6554 44.1172 11.1975 44.3128 10.2997L41.9127 10.1442C41.8371 10.7753 41.6993 11.7976 40.5482 11.7976C39.2148 11.7976 39.2415 10.3931 39.2637 9.0908H44.3172C44.3172 7.92187 44.3172 6.6907 43.6105 5.38398C43.2993 4.83259 42.8423 4.37753 42.2896 4.06864C41.7368 3.75975 41.1098 3.60897 40.4771 3.63282M39.2859 7.55295C39.2859 6.87737 39.3259 5.40621 40.5349 5.40621C41.8416 5.40621 41.8016 7.03293 41.7838 7.55295H39.2859Z" fill="#171321"/>
<path d="M50.2284 3.63716C48.7173 3.63716 48.215 4.35275 47.8284 5.15722V3.85051H45.2949V13.4464H47.9617V7.82842C47.9617 6.65505 47.9617 5.71723 49.1528 5.71723C49.984 5.71723 50.0729 6.28614 50.0729 7.1484V13.4464H52.7396V7.1484C52.7396 6.19281 52.7396 5.25055 52.3441 4.65053C52.1093 4.31164 51.7904 4.03962 51.4187 3.86118C51.047 3.68274 50.6353 3.60402 50.224 3.63272" fill="#171321"/>
<path d="M61.326 0.455078H58.6948V4.7308C58.5077 4.39038 58.2248 4.11241 57.881 3.93146C57.5373 3.75051 57.148 3.67454 56.7614 3.71298C53.5791 3.71298 53.5791 7.9398 53.5791 8.70427C53.5791 10.6199 54.0725 13.5933 56.6459 13.5933C58.1659 13.5933 58.5793 12.5755 58.8682 11.8822V13.4467H61.3438L61.326 0.455078ZM57.5037 11.7488C56.3525 11.7488 56.3525 10.1532 56.3525 8.28649C56.3525 6.73532 56.4859 5.49083 57.5215 5.49083C58.6904 5.49083 58.6904 7.03755 58.6904 7.89091V9.59319C58.6904 10.291 58.6904 11.7488 57.4992 11.7488" fill="#171321"/>
<path d="M65.42 0.375H62.7266V3.04177H65.4333L65.42 0.375ZM65.42 3.85069H62.7532V13.4466H65.42V3.85069Z" fill="#171321"/>
<path d="M74.2162 2.1794C72.7539 2.1794 72.5406 3.06833 72.4073 4.08614C71.7628 3.77323 71.0522 3.62074 70.3361 3.64168C68.6827 3.64168 66.7448 4.31727 66.7448 6.6018C66.7448 8.22408 67.5848 8.69076 68.1671 9.00188C67.5315 9.37967 66.5137 9.95748 66.5137 11.1309C66.5137 12.202 67.4515 12.6287 67.7626 12.7842C67.1626 12.9976 66.207 13.3932 66.207 14.5843C66.207 16.8688 69.3183 16.8688 70.1449 16.8688C71.7006 16.8688 74.8474 16.6466 74.8474 13.6643C74.8734 13.253 74.7945 12.8418 74.618 12.4694C74.4415 12.097 74.1732 11.7756 73.8384 11.5353C73.1495 11.0509 72.505 11.0153 70.3049 10.8953C69.2694 10.8197 68.7093 10.7797 68.7093 10.2464C68.7093 10.1664 68.7093 9.80192 69.3271 9.45079C69.74 9.56377 70.1659 9.62204 70.5939 9.62412C72.4295 9.62412 74.0651 8.6641 74.0651 6.73069C74.0816 6.02127 73.8255 5.33251 73.3495 4.80617C73.5229 3.96169 74.0473 3.91725 74.354 3.91725C74.5535 3.91578 74.7524 3.9412 74.9451 3.99281V2.2594C74.7015 2.19486 74.4505 2.162 74.1984 2.16162M70.4161 8.16184C69.5627 8.16184 69.496 7.27293 69.496 6.6818C69.496 5.5662 69.7583 5.06396 70.4561 5.06396C71.0072 5.06396 71.2961 5.43287 71.2961 6.61958C71.2961 7.63739 71.1228 8.15741 70.4072 8.15741M70.5227 15.1621C69.0827 15.1621 68.4027 14.8732 68.4027 14.1843C68.4079 13.9318 68.4903 13.6869 68.6389 13.4827C68.7875 13.2784 68.9951 13.1247 69.2338 13.042C69.5894 13.082 71.1317 13.1754 71.4561 13.2154C71.8606 13.2154 72.5095 13.4109 72.5095 14.1443C72.5095 14.8777 71.9228 15.1621 70.5361 15.1621" fill="#171321"/>
<path d="M78.1848 3.63721C75.3136 3.63721 74.2646 5.64173 74.2646 8.64629C74.2646 11.7575 75.398 13.6598 78.1626 13.6598C80.9271 13.6598 82.0827 11.7264 82.0827 8.64629C82.0827 5.63729 81.0293 3.63721 78.1848 3.63721ZM78.1848 11.7842C77.3803 11.7842 77.0336 11.2019 77.0336 8.65073C77.0336 6.29064 77.3047 5.5084 78.167 5.5084C78.9804 5.5084 79.3004 6.17508 79.3004 8.65073C79.3004 11.2242 78.9448 11.7842 78.167 11.7842" fill="#171321"/>
<path d="M86.6478 3.57979C86.0051 3.56848 85.3686 3.70856 84.79 3.9887C84.3808 4.18 84.0249 4.46895 83.7537 4.83012C83.4824 5.19129 83.3041 5.6136 83.2344 6.05989L84.6344 6.29101C84.7084 5.84522 84.9454 5.44282 85.2994 5.16194C85.6534 4.88105 86.0991 4.74171 86.5501 4.77096C88.3279 4.77096 88.3279 6.46435 88.3279 7.15326V7.55772C87.9075 7.50742 87.4846 7.48218 87.0612 7.48216C85.4834 7.48216 84.2922 7.85106 83.5677 8.70887C83.0901 9.32296 82.8376 10.0823 82.8522 10.8601C82.8522 12.6379 84.0033 13.7446 85.6789 13.7446C87.4301 13.7446 88.0612 12.5357 88.4479 11.7712C88.4392 12.3409 88.4778 12.9103 88.5635 13.4735H89.928C89.7724 12.709 89.7546 12.3223 89.7546 10.3889V7.56217C89.7546 6.4688 89.7546 5.29986 89.1724 4.60206C88.8515 4.25582 88.4579 3.98497 88.0198 3.80898C87.5818 3.63299 87.1102 3.55624 86.6389 3.58424M85.9634 12.5579C84.8522 12.5579 84.3678 11.9001 84.3678 10.9045C84.3678 9.33557 85.2567 8.58443 87.2301 8.58443C87.605 8.58247 87.9791 8.62123 88.3457 8.69999C88.4035 9.73558 88.4035 10.4512 87.9412 11.3312C87.7581 11.6987 87.4768 12.0082 87.1284 12.2256C86.7801 12.4429 86.3784 12.5595 85.9678 12.5624" fill="#171321"/>
<path d="M95.559 3.5797C95.0127 3.56552 94.4764 3.72839 94.0303 4.04399C93.5841 4.3596 93.2519 4.81101 93.0834 5.33088V3.85083H91.75V13.4467H93.1723V8.28211C93.1723 5.56201 94.0923 4.77087 95.2435 4.77087C96.7235 4.77087 96.7235 5.93979 96.7235 7.53985V13.4467H98.1458V7.34429C98.1458 6.27314 98.1458 5.44645 97.8569 4.86865C97.6408 4.45284 97.3075 4.10952 96.8983 3.88121C96.4891 3.6529 96.0219 3.54962 95.5546 3.58415" fill="#171321"/>
<path d="M106.871 0.455078H105.448V5.15748C105.256 4.68698 104.921 4.28875 104.491 4.01915C104.06 3.74955 103.555 3.62222 103.048 3.6552C101.066 3.6552 99.6348 5.43305 99.6348 8.78429C99.6348 10.2243 99.9548 13.6734 103.013 13.6734C103.546 13.7045 104.077 13.5745 104.536 13.3003C104.995 13.0261 105.361 12.6202 105.586 12.1355V13.4689H106.871V0.455078ZM103.377 12.4555C101.724 12.4555 101.221 10.8021 101.221 8.57539C101.221 6.77532 101.568 4.82857 103.302 4.82857C103.616 4.82634 103.927 4.90087 104.207 5.04569C104.486 5.19051 104.726 5.40127 104.906 5.65973C105.306 6.27346 105.496 7.00008 105.448 7.73092V9.32653C105.448 10.2866 105.408 11.1044 104.946 11.6688C104.762 11.911 104.525 12.1076 104.253 12.2433C103.981 12.379 103.681 12.4501 103.377 12.4511" fill="#171321"/>
<path d="M31.9345 18.3357H29.041L25.1387 31.3495H27.7699L28.4188 28.6828H32.0589L32.7167 31.3495H35.628L31.9345 18.3357ZM28.9477 26.4338L30.2144 21.1313L31.5211 26.4338H28.9477Z" fill="#171321"/>
<path d="M43.2234 18.3357H40.5922V22.6114C40.4056 22.2706 40.1226 21.9923 39.7788 21.8113C39.435 21.6303 39.0454 21.5546 38.6588 21.5936C35.4854 21.5936 35.4854 25.8204 35.4854 26.5849C35.4854 28.5005 35.9698 31.474 38.5432 31.474C40.0633 31.474 40.4766 30.4561 40.7655 29.7583V31.3362H43.2412L43.2234 18.3357ZM39.4011 29.6383C38.2499 29.6383 38.2499 28.0338 38.2499 26.1671C38.2499 24.6159 38.3832 23.3714 39.4188 23.3714C40.5878 23.3714 40.5878 24.9182 40.5878 25.7715V27.4738C40.5878 28.1716 40.5878 29.6428 39.3966 29.6428" fill="#171321"/>
<path d="M48.1966 21.518C47.5386 21.4999 46.888 21.6602 46.3137 21.9818C45.7394 22.3034 45.2627 22.7743 44.9343 23.3447C44.4455 24.3823 44.2008 25.518 44.2187 26.6648C44.2187 29.2205 45.2721 31.5539 48.2188 31.5539C51.3301 31.5539 51.8456 29.096 52.0412 28.1982L49.6411 28.0427C49.5656 28.6738 49.4278 29.7094 48.2766 29.7094C46.9432 29.7094 46.9699 28.296 46.9921 26.9893H52.059C52.059 25.8204 52.059 24.5892 51.3612 23.2825C51.0462 22.7314 50.5866 22.2769 50.0319 21.9682C49.4773 21.6596 48.8488 21.5085 48.2144 21.5313M47.0055 25.447C47.0055 24.7714 47.0455 23.3003 48.2544 23.3003C49.5611 23.3003 49.5211 24.9226 49.5033 25.447H47.0055Z" fill="#171321"/>
<path d="M55.6859 18.3357H53.0146V31.3495H55.6859V18.3357Z" fill="#171321"/>
<path d="M60.9884 21.518C60.1987 21.4939 59.4163 21.6746 58.7172 22.0425C58.2657 22.2901 57.8828 22.646 57.6028 23.078C57.3228 23.5101 57.1544 24.0049 57.1126 24.5181L59.6283 24.7804C59.7039 24.0159 59.8905 23.2914 60.7794 23.2914C61.735 23.2914 61.735 24.1803 61.735 25.0159V25.3848C58.8727 25.5404 56.7793 26.2471 56.7793 28.9183C56.7793 30.8028 58.0105 31.5495 59.2949 31.5495C59.8554 31.5684 60.4087 31.4194 60.8839 31.1217C61.359 30.8239 61.7344 30.3909 61.9617 29.8783C61.9217 30.3756 61.9668 30.8762 62.0951 31.3584H64.5707C64.4729 31.0295 64.4151 30.8561 64.4151 29.2116V25.3893C64.4151 24.2203 64.3751 23.1269 63.7973 22.5447C63.4249 22.194 62.985 21.9229 62.5043 21.7479C62.0236 21.5729 61.5124 21.4977 61.0017 21.5269M60.4594 29.7805C59.8194 29.7805 59.5705 29.2472 59.5705 28.5716C59.5705 27.3227 60.2194 26.9493 61.7573 26.7538V27.2249C61.7573 28.1138 61.7217 28.7049 61.3528 29.2472C61.2649 29.4066 61.1364 29.54 60.9802 29.6337C60.8241 29.7274 60.6459 29.778 60.4639 29.7805" fill="#171321"/>
<path d="M68.5043 18.2556H65.7842V20.9224H68.5043V18.2556ZM68.5043 21.7269H65.8375V31.345H68.5043V21.7269Z" fill="#171321"/>
<path d="M77.1845 18.3357H74.5532V22.6114C74.3666 22.2706 74.0837 21.9923 73.7399 21.8113C73.396 21.6303 73.0065 21.5546 72.6199 21.5936C69.4375 21.5936 69.4375 25.8204 69.4375 26.5849C69.4375 28.5005 69.9309 31.474 72.5043 31.474C74.0243 31.474 74.4377 30.4561 74.7266 29.7583V31.3362H77.2022L77.1845 18.3357ZM73.3621 29.6383C72.2109 29.6383 72.211 28.0338 72.211 26.1671C72.211 24.6159 72.3443 23.3714 73.3799 23.3714C74.5488 23.3714 74.5488 24.9182 74.5488 25.7715V27.4738C74.5488 28.1716 74.5488 29.6428 73.3576 29.6428" fill="#171321"/>
<path d="M82.1585 21.518C81.5005 21.4999 80.8499 21.6602 80.2756 21.9818C79.7013 22.3034 79.2246 22.7743 78.8962 23.3447C78.4074 24.3823 78.1627 25.518 78.1806 26.6648C78.1806 29.2205 79.2251 31.5539 82.1808 31.5539C85.292 31.5539 85.8075 29.096 86.0031 28.1982L83.603 28.0427C83.5274 28.6738 83.3897 29.7094 82.2385 29.7094C80.9052 29.7094 80.9318 28.296 80.954 26.9893H86.0076C86.0076 25.8204 86.0075 24.5892 85.3009 23.2825C84.9896 22.7311 84.5326 22.276 83.9799 21.9672C83.4272 21.6583 82.8001 21.5075 82.1674 21.5313M80.9496 25.447C80.9496 24.7714 80.9896 23.3003 82.1985 23.3003C83.5052 23.3003 83.4652 24.9226 83.4475 25.447H80.9496Z" fill="#171321"/>
<path d="M90.8782 18.3357H87.3447V31.3495H90.9715C94.2339 31.3495 95.305 29.7717 95.305 27.7227C95.305 25.1315 93.4472 24.6115 92.8694 24.4426C93.477 24.2564 94.0037 23.8699 94.3637 23.3461C94.7236 22.8223 94.8956 22.1921 94.8517 21.558C94.865 20.7301 94.5917 19.9231 94.0783 19.2735C93.2783 18.3357 92.0605 18.3357 90.8782 18.3357ZM88.9226 23.8603V19.6424H90.8782C91.6027 19.6424 93.216 19.6424 93.216 21.7136C93.216 23.7848 91.696 23.8603 90.6648 23.8603H88.9226ZM88.9226 30.0428V25.1537H90.6249C91.4871 25.1537 92.1271 25.1893 92.7538 25.6382C93.0521 25.8734 93.2888 26.1774 93.4436 26.5243C93.5984 26.8711 93.6668 27.2503 93.6427 27.6294C93.6427 29.3628 92.5316 30.0295 90.9137 30.0295L88.9226 30.0428Z" fill="#171321"/>
<path d="M100.261 21.4468C99.6186 21.4343 98.9822 21.5728 98.4031 21.8513C97.9942 22.0429 97.6385 22.3319 97.3673 22.693C97.096 23.0542 96.9176 23.4763 96.8475 23.9225L98.2476 24.1536C98.3206 23.7074 98.5574 23.3044 98.9116 23.0233C99.2658 22.7422 99.712 22.6033 100.163 22.6335C101.941 22.6335 101.941 24.3269 101.941 25.0159V25.447C101.521 25.3946 101.098 25.3679 100.674 25.367C99.0965 25.367 97.9053 25.7359 97.1809 26.5981C96.7055 27.2117 96.4531 27.9688 96.4653 28.7449C96.4653 30.5227 97.6164 31.6294 99.2921 31.6294C101.043 31.6294 101.674 30.4205 102.061 29.6649C102.053 30.2316 102.091 30.798 102.177 31.3583H103.541C103.386 30.5938 103.368 30.2071 103.368 28.2737V25.447C103.368 24.3536 103.368 23.1847 102.786 22.4869C102.465 22.1404 102.071 21.8693 101.633 21.6933C101.195 21.5173 100.723 21.4407 100.252 21.469M99.5676 30.4383C98.4565 30.4383 97.972 29.7805 97.972 28.7849C97.972 27.2293 98.8609 26.4648 100.834 26.4648C101.209 26.4636 101.583 26.5024 101.95 26.5803C102.008 27.6159 102.008 28.3315 101.541 29.2115C101.358 29.579 101.077 29.8886 100.728 30.1059C100.38 30.3232 99.9782 30.4398 99.5676 30.4427" fill="#171321"/>
<path d="M109.172 21.4468C108.626 21.4326 108.09 21.5955 107.644 21.9111C107.197 22.2267 106.865 22.6781 106.697 23.198V21.7179H105.363V31.3361H106.786V26.1625C106.786 23.4513 107.706 22.6513 108.857 22.6513C110.337 22.6513 110.337 23.8202 110.337 25.4203V31.3538H111.759V25.2247C111.759 24.1536 111.759 23.3269 111.47 22.7491C111.256 22.3311 110.925 21.9849 110.516 21.7534C110.108 21.522 109.641 21.4153 109.172 21.4468Z" fill="#171321"/>
<path d="M115.182 18.3357H113.76V31.3495H115.182V28.3183L116.702 26.2382L118.964 31.3495H120.502L117.658 25.1271L120.173 21.7314H118.618L115.182 26.5093V18.3357Z" fill="#171321"/>
</g>
<defs>
<clipPath id="clip0_109_4684">
<rect width="120" height="33.2501" fill="white" transform="translate(0.501953 0.375)"/>
</clipPath>
</defs>
</svg>
